Ethereum Analysis
…
Now we gather all the historic data about Ethereum, we need to pick the needed columns to analyze.

ethereum_tidy<-ethereum_df%>%
  select(name,date,open,close,high,low,market,volume)
ethereum_tidy

## # A tibble: 1,211 x 8
##    name     date        open close  high   low    market  volume
##    <chr>    <date>     <dbl> <dbl> <dbl> <dbl>     <dbl>   <dbl>
##  1 Ethereum 2015-08-07 2.83  2.77  3.54  2.52  166610555  164329
##  2 Ethereum 2015-08-08 2.79  0.753 2.8   0.715  45486894  674188
##  3 Ethereum 2015-08-09 0.706 0.702 0.880 0.629  42399573  532170
##  4 Ethereum 2015-08-10 0.714 0.708 0.730 0.637  42818364  405283
##  5 Ethereum 2015-08-11 0.708 1.07  1.13  0.663  64569288 1463100
##  6 Ethereum 2015-08-12 1.06  1.22  1.29  0.884  73645011 2150620
##  7 Ethereum 2015-08-13 1.22  1.83  1.97  1.17  110607192 4068680
##  8 Ethereum 2015-08-14 1.81  1.83  2.26  1.75  110672322 4637030
##  9 Ethereum 2015-08-15 1.8   1.69  1.88  1.57  102303608 2554360
## 10 Ethereum 2015-08-16 1.68  1.57  1.7   1.09   94901005 3550790
## # ... with 1,201 more rows
…
